<svg width="16" height="16" viewBox="0 0 16 16" fill="none" xmlns="http://www.w3.org/2000/svg">
<path fill-rule="evenodd" clip-rule="evenodd" d="M8 0C3.584 0 0 3.584 0 8C0 12.416 3.584 16 8 16C12.416 16 16 12.416 16 8C16 3.584 12.416 0 8 0ZM8 9C7.45 9 7 8.625 7 8.16667V4.83333C7 4.375 7.45 4 8 4C8.55 4 9 4.375 9 4.83333V8.16667C9 8.625 8.55 9 8 9ZM7 10V12H9V10H7Z" fill="white"/>
</svg>
